The tests in this directory were imported from the W3C repository.
Do NOT modify these tests directly in WebKit.
Instead, create a pull request on the WPT github:
	https://github.com/web-platform-tests/wpt

Then run the Tools/Scripts/import-w3c-tests in WebKit to reimport

Do NOT modify or remove this file.

------------------------------------------------------------------------
Properties requiring vendor prefixes:
None
Property values requiring vendor prefixes:
None
------------------------------------------------------------------------
List of files:
/LayoutTests/imported/w3c/web-platform-tests/css/css-color-adjust/rendering/dark-color-scheme/support/dark-frame-alpha.html
/LayoutTests/imported/w3c/web-platform-tests/css/css-color-adjust/rendering/dark-color-scheme/support/dark-frame-opaque.html
/LayoutTests/imported/w3c/web-platform-tests/css/css-color-adjust/rendering/dark-color-scheme/support/dark-frame-ref.html
/LayoutTests/imported/w3c/web-platform-tests/css/css-color-adjust/rendering/dark-color-scheme/support/dark-frame.html
/LayoutTests/imported/w3c/web-platform-tests/css/css-color-adjust/rendering/dark-color-scheme/support/prefers-color-scheme.svg
