layer at (0,0) size 785x781
  RenderView at (0,0) size 785x600
layer at (0,0) size 785x781
  RenderBlock {HTML} at (0,0) size 785x781
    RenderBody {BODY} at (8,8) size 769x760
      RenderBlock {P} at (0,0) size 769x36
        RenderText {#text} at (0,0) size 54x18
          text run at (0,0) width 54: "Test for "
        RenderInline {I} at (0,0) size 746x36
          RenderInline {A} at (0,0) size 353x18 [color=#0000EE]
            RenderText {#text} at (53,0) size 353x18
              text run at (53,0) width 353: "http://bugzilla.opendarwin.org/show_bug.cgi?id=7216"
          RenderText {#text} at (405,0) size 746x36
            text run at (405,0) width 5: " "
            text run at (409,0) width 337: "white-space: pre-wrap collapses leading whitespace"
            text run at (0,18) width 127: "following a newline"
        RenderText {#text} at (126,18) size 5x18
          text run at (126,18) width 5: "."
      RenderBlock {P} at (0,70) size 769x18
        RenderText {#text} at (0,0) size 36x18
          text run at (0,0) width 36: "Here "
        RenderInline {CODE} at (0,0) size 24x15
          RenderText {#text} at (35,2) size 24x15
            text run at (35,2) width 24: "bar"
        RenderText {#text} at (58,0) size 145x18
          text run at (58,0) width 145: " should be right under "
        RenderInline {CODE} at (0,0) size 25x15
          RenderText {#text} at (202,2) size 25x15
            text run at (202,2) width 25: "foo"
        RenderText {#text} at (226,0) size 5x18
          text run at (226,0) width 5: ":"
      RenderBlock {PRE} at (0,104) size 42x30 [bgcolor=#C0C0C0]
        RenderText {#text} at (0,0) size 42x30
          text run at (0,0) width 24: "foo"
          text run at (23,0) width 19: "      "
          text run at (0,15) width 24: "bar"
      RenderBlock {P} at (0,150) size 769x18
        RenderText {#text} at (0,0) size 36x18
          text run at (0,0) width 36: "Here "
        RenderInline {CODE} at (0,0) size 24x15
          RenderText {#text} at (35,2) size 24x15
            text run at (35,2) width 24: "bar"
        RenderText {#text} at (58,0) size 331x18
          text run at (58,0) width 331: " should be on the right hand side of the second line:"
      RenderBlock {PRE} at (0,184) size 42x45 [bgcolor=#C0C0C0]
        RenderText {#text} at (0,0) size 24x15
          text run at (0,0) width 24: "foo"
        RenderBR {BR} at (23,0) size 1x15
        RenderText {#text} at (0,15) size 24x30
          text run at (0,15) width 24: "   "
          text run at (0,30) width 24: "bar"
      RenderBlock {PRE} at (0,242) size 42x45 [bgcolor=#C0C0C0]
        RenderText {#text} at (0,0) size 42x15
          text run at (0,0) width 24: "foo"
          text run at (23,0) width 19: "    "
        RenderBR {BR} at (0,0) size 0x0
        RenderText {#text} at (0,15) size 24x30
          text run at (0,15) width 24: "   "
          text run at (0,30) width 24: "bar"
      RenderBlock {PRE} at (0,300) size 42x45 [bgcolor=#C0C0C0]
        RenderText {#text} at (0,0) size 24x45
          text run at (0,0) width 24: "foo"
          text run at (23,0) width 1: " "
          text run at (0,15) width 24: "   "
          text run at (0,30) width 24: "bar"
      RenderBlock {PRE} at (0,358) size 42x45 [bgcolor=#C0C0C0]
        RenderText {#text} at (0,0) size 32x45
          text run at (0,0) width 32: "foo "
          text run at (31,0) width 1: " "
          text run at (0,15) width 24: "   "
          text run at (0,30) width 24: "bar"
      RenderBlock {PRE} at (0,416) size 42x45 [bgcolor=#C0C0C0]
        RenderText {#text} at (0,0) size 40x45
          text run at (0,0) width 40: "foo  "
          text run at (39,0) width 1: " "
          text run at (0,15) width 24: "   "
          text run at (0,30) width 24: "bar"
      RenderBlock {PRE} at (0,474) size 42x45 [bgcolor=#C0C0C0]
        RenderText {#text} at (0,0) size 55x45
          text run at (0,0) width 40: "foo  "
          text run at (39,0) width 16: "  "
          text run at (0,15) width 24: "   "
          text run at (0,30) width 24: "bar"
      RenderBlock {PRE} at (0,532) size 42x45 [bgcolor=#C0C0C0]
        RenderText {#text} at (0,0) size 63x45
          text run at (0,0) width 40: "foo  "
          text run at (39,0) width 24: "   "
          text run at (0,15) width 24: "   "
          text run at (0,30) width 24: "bar"
      RenderBlock {P} at (0,593) size 769x18
        RenderText {#text} at (0,0) size 36x18
          text run at (0,0) width 36: "Here "
        RenderInline {CODE} at (0,0) size 24x15
          RenderText {#text} at (35,2) size 24x15
            text run at (35,2) width 24: "bar"
        RenderText {#text} at (58,0) size 317x18
          text run at (58,0) width 317: " should be on the right hand side of the third line:"
      RenderBlock {PRE} at (0,627) size 42x60 [bgcolor=#C0C0C0]
        RenderText {#text} at (0,0) size 24x15
          text run at (0,0) width 24: "foo"
        RenderBR {BR} at (23,0) size 1x15
        RenderText {#text} at (0,15) size 24x45
          text run at (0,15) width 0: " "
          text run at (0,30) width 24: "   "
          text run at (0,45) width 24: "bar"
      RenderBlock {PRE} at (0,700) size 42x60 [bgcolor=#C0C0C0]
        RenderText {#text} at (0,0) size 32x60
          text run at (0,0) width 24: "foo"
          text run at (23,0) width 9: " "
          text run at (0,15) width 24: "baz"
          text run at (23,15) width 1: " "
          text run at (0,30) width 24: "   "
          text run at (0,45) width 24: "bar"
layer at (8,60) size 769x2 clip at (0,0) size 0x0
  RenderBlock {HR} at (0,52) size 769x2 [border: (1px inset #000000)]
