layer at (0,0) size 800x600
  RenderView at (0,0) size 800x600
layer at (0,0) size 800x600
  RenderSVGRoot {svg} at (0,0) size 800x600
    RenderSVGHiddenContainer {defs} at (0,0) size 0x0
    RenderSVGContainer {g} at (50,33) size 684x453
      RenderSVGContainer {g} at (50,33) size 684x453
        RenderSVGHiddenContainer {defs} at (0,0) size 0x0
          RenderSVGResourceClipper {clipPath} [id="sample"] [clipPathUnits=userSpaceOnUse]
            RenderSVGText {text} at (45,169) size 355x123 contains 1 chunk(s)
              RenderSVGInlineText {#text} at (0,0) size 355x123
                chunk 1 text run 1 at (45.00,270.00) startOffset 0 endOffset 9 width 354.09: "Clip Test"
        RenderSVGContainer {g} at (50,33) size 684x234
          RenderSVGImage {image} at (50,33) size 684x234
          RenderSVGText {text} at (55,29) size 355x123 contains 1 chunk(s)
            RenderSVGInlineText {#text} at (0,0) size 355x123
              chunk 1 text run 1 at (55.00,130.00) startOffset 0 endOffset 9 width 354.09: "Clip Test"
        RenderSVGContainer {g} at (75,283) size 591x203
          RenderSVGImage {image} at (75,283) size 591x203
            [clipPath="sample"] RenderSVGResourceClipper {clipPath} at (45,169.19) size 354.09x122.13
    RenderSVGContainer {g} at (16,516) size 385x64
      RenderSVGText {text} at (10,310) size 231x38 contains 1 chunk(s)
        RenderSVGInlineText {#text} at (0,0) size 231x38
          chunk 1 text run 1 at (10.00,340.00) startOffset 0 endOffset 16 width 230.19: "$Revision: 1.5 $"
    RenderSVGRect {rect} at (0,0) size 800x600 [stroke={[type=SOLID] [color=#000000]}] [x=1.00] [y=1.00] [width=478.00] [height=358.00]
