layer at (0,0) size 800x600
  RenderView at (0,0) size 800x600
layer at (0,0) size 800x600
  RenderBlock {HTML} at (0,0) size 800x600
    RenderBody {BODY} at (8,8) size 784x584
      RenderBlock {P} at (0,0) size 784x20
        RenderText {#text} at (0,0) size 692x19
          text run at (0,0) width 321: "This tests moving backward by sentence boundaries. "
          text run at (321,0) width 371: "The caret should be at the start of the second to last sentence."
      RenderBlock {DIV} at (0,36) size 784x60
        RenderText {#text} at (0,0) size 779x59
          text run at (0,0) width 772: "Lorem ipsum dolor sit amet, consectetuer adipiscing elit. Nunc a augue. Pellentesque habitant morbi tristique senectus et netus et "
          text run at (0,20) width 779: "malesuada fames ac turpis egestas. Mauris ut pede. Integer lacus. Ut ipsum. Phasellus tristique leo eu velit. Vestibulum arcu lacus, "
          text run at (0,40) width 485: "blandit ac, condimentum sed, commodo in, arcu. Curabitur suscipit pede eu sem."
caret: position 241 of child 0 {#text} of child 2 {DIV} of body
