layer at (0,0) size 800x600
  RenderView at (0,0) size 800x600
layer at (0,0) size 800x600
  RenderBlock {HTML} at (0,0) size 800x600
    RenderBody {BODY} at (8,8) size 784x584
      RenderBlock {P} at (0,0) size 784x57
        RenderText {#text} at (0,1) size 571x17
          text run at (0,1) width 571: "This tests that bidirectional text is correctly rendered in popup controls."
        RenderBR {BR} at (571,1) size 0x17
        RenderText {#text} at (0,20) size 780x36
          text run at (0,20) width 780: "The order of the text below each popup button should match the order of the select's option text,"
          text run at (0,39) width 359: "and the order of the text in the popup menu."
      RenderBlock (anonymous) at (0,73) size 784x49
        RenderText {#text} at (0,0) size 344x17
          text run at (0,0) width 344: "1) direction: rtl; -webkit-rtl-ordering: logical"
        RenderBR {BR} at (344,0) size 0x17
        RenderMenuList {SELECT} at (0,18) size 100x31 [bgcolor=#FFFFFF] [border: (1px solid #000000)]
          RenderBlock (anonymous) at (1,1) size 98x29
            RenderText at (5,6) size 88x17
              text run at (5,6) width 59 RTL: "\x{5D0}\x{5E4}\x{5E8}\x{5E1}\x{5DE}\x{5D5}\x{5DF}"
              text run at (64,6) width 29: "abc"
        RenderBR {BR} at (100,25) size 0x17
      RenderBlock {DIV} at (0,122) size 100x19
        RenderText {#text} at (0,1) size 88x17
          text run at (0,1) width 29: "abc"
          text run at (29,1) width 59 RTL: "\x{5D0}\x{5E4}\x{5E8}\x{5E1}\x{5DE}\x{5D5}\x{5DF}"
      RenderBlock (anonymous) at (0,141) size 784x67
        RenderBR {BR} at (0,0) size 0x17
        RenderText {#text} at (0,18) size 143x17
          text run at (0,18) width 143: "2) text-align: right"
        RenderBR {BR} at (143,18) size 0x17
        RenderMenuList {SELECT} at (0,36) size 200x31 [bgcolor=#FFFFFF] [border: (1px solid #000000)]
          RenderBlock (anonymous) at (1,1) size 198x29
            RenderText at (5,6) size 88x17
              text run at (5,6) width 29: "abc"
              text run at (34,6) width 59 RTL: "\x{5D0}\x{5E4}\x{5E8}\x{5E1}\x{5DE}\x{5D5}\x{5DF}"
        RenderBR {BR} at (200,43) size 0x17
      RenderBlock {DIV} at (0,208) size 200x19
        RenderText {#text} at (0,1) size 88x17
          text run at (0,1) width 29: "abc"
          text run at (29,1) width 59 RTL: "\x{5D0}\x{5E4}\x{5E8}\x{5E1}\x{5DE}\x{5D5}\x{5DF}"
      RenderBlock (anonymous) at (0,227) size 784x67
        RenderBR {BR} at (0,0) size 0x17
        RenderText {#text} at (0,18) size 85x17
          text run at (0,18) width 85: "3) No style"
        RenderBR {BR} at (85,18) size 0x17
        RenderMenuList {SELECT} at (0,36) size 100x31 [bgcolor=#FFFFFF] [border: (1px solid #000000)]
          RenderBlock (anonymous) at (1,1) size 98x29
            RenderText at (5,6) size 88x17
              text run at (5,6) width 29: "abc"
              text run at (34,6) width 59 RTL: "\x{5D0}\x{5E4}\x{5E8}\x{5E1}\x{5DE}\x{5D5}\x{5DF}"
        RenderBR {BR} at (100,43) size 0x17
      RenderBlock {DIV} at (0,294) size 100x19
        RenderText {#text} at (0,1) size 88x17
          text run at (0,1) width 29: "abc"
          text run at (29,1) width 59 RTL: "\x{5D0}\x{5E4}\x{5E8}\x{5E1}\x{5DE}\x{5D5}\x{5DF}"
      RenderBlock (anonymous) at (0,313) size 784x18
        RenderBR {BR} at (0,0) size 0x17
