layer at (0,0) size 800x600
  RenderView at (0,0) size 800x600
layer at (0,0) size 800x600
  RenderBlock {HTML} at (0,0) size 800x600
    RenderBody {BODY} at (8,8) size 784x584 [bgcolor=#CCCCCC]
      RenderBlock {P} at (0,0) size 784x20
        RenderText {#text} at (0,0) size 337x19
          text run at (0,0) width 337: "The style declarations which apply to the text below are:"
      RenderBlock {PRE} at (0,36) size 784x32
        RenderText {#text} at (0,0) size 400x32
          text run at (0,0) width 392: ".one {margin-left: 25px; background-color: aqua;}"
          text run at (392,0) width 0: " "
          text run at (0,16) width 400: ".two {margin-left: -10px; background-color: aqua;}"
          text run at (400,16) width 0: " "
      RenderBlock {P} at (0,99) size 784x40 [bgcolor=#808080]
        RenderText {#text} at (0,0) size 515x19
          text run at (0,0) width 369: "This element is unstyled save for a background color of gray. "
          text run at (369,0) width 146: "However, it contains an "
        RenderInline {SPAN} at (0,0) size 157x19 [bgcolor=#00FFFF]
          RenderText {#text} at (540,0) size 133x19
            text run at (540,0) width 133: "inline element of class "
          RenderInline {TT} at (0,0) size 24x16
            RenderText {#text} at (673,3) size 24x16
              text run at (673,3) width 24: "one"
        RenderText {#text} at (697,0) size 783x39
          text run at (697,0) width 86: ", which should"
          text run at (0,20) width 235: "result in 25-pixel left margin only in the "
        RenderInline {STRONG} at (0,0) size 27x19
          RenderText {#text} at (235,20) size 27x19
            text run at (235,20) width 27: "first"
        RenderText {#text} at (262,20) size 216x19
          text run at (262,20) width 216: " line in which the inline box appears."
      RenderBlock {P} at (0,155) size 784x40 [bgcolor=#808080]
        RenderText {#text} at (0,0) size 515x19
          text run at (0,0) width 369: "This element is unstyled save for a background color of gray. "
          text run at (369,0) width 146: "However, it contains an "
        RenderInline {SPAN} at (0,0) size 157x19 [bgcolor=#00FFFF]
          RenderText {#text} at (505,0) size 133x19
            text run at (505,0) width 133: "inline element of class "
          RenderInline {TT} at (0,0) size 24x16
            RenderText {#text} at (638,3) size 24x16
              text run at (638,3) width 24: "two"
        RenderText {#text} at (662,0) size 784x39
          text run at (662,0) width 122: ", which should result"
          text run at (0,20) width 186: "in -10px left margin only in the "
        RenderInline {STRONG} at (0,0) size 27x19
          RenderText {#text} at (186,20) size 27x19
            text run at (186,20) width 27: "first"
        RenderText {#text} at (213,20) size 216x19
          text run at (213,20) width 216: " line in which the inline box appears."
      RenderTable {TABLE} at (0,211) size 784x134 [border: (1px outset #808080)]
        RenderTableSection {TBODY} at (1,1) size 782x132
          RenderTableRow {TR} at (0,0) size 782x28
            RenderTableCell {TD} at (0,0) size 782x28 [bgcolor=#C0C0C0] [border: (1px inset #808080)] [r=0 c=0 rs=1 cs=2]
              RenderInline {STRONG} at (0,0) size 159x19
                RenderText {#text} at (4,4) size 159x19
                  text run at (4,4) width 159: "TABLE Testing Section"
          RenderTableRow {TR} at (0,28) size 782x104
            RenderTableCell {TD} at (0,66) size 12x28 [bgcolor=#C0C0C0] [border: (1px inset #808080)] [r=1 c=0 rs=1 cs=1]
              RenderText {#text} at (4,4) size 4x19
                text run at (4,4) width 4: " "
            RenderTableCell {TD} at (12,28) size 770x104 [border: (1px inset #808080)] [r=1 c=1 rs=1 cs=1]
              RenderBlock {P} at (4,4) size 762x40 [bgcolor=#808080]
                RenderText {#text} at (0,0) size 515x19
                  text run at (0,0) width 369: "This element is unstyled save for a background color of gray. "
                  text run at (369,0) width 146: "However, it contains an "
                RenderInline {SPAN} at (0,0) size 157x19 [bgcolor=#00FFFF]
                  RenderText {#text} at (540,0) size 133x19
                    text run at (540,0) width 133: "inline element of class "
                  RenderInline {TT} at (0,0) size 24x16
                    RenderText {#text} at (673,3) size 24x16
                      text run at (673,3) width 24: "one"
                RenderText {#text} at (697,0) size 740x39
                  text run at (697,0) width 43: ", which"
                  text run at (0,20) width 278: "should result in 25-pixel left margin only in the "
                RenderInline {STRONG} at (0,0) size 27x19
                  RenderText {#text} at (278,20) size 27x19
                    text run at (278,20) width 27: "first"
                RenderText {#text} at (305,20) size 216x19
                  text run at (305,20) width 216: " line in which the inline box appears."
              RenderBlock {P} at (4,60) size 762x40 [bgcolor=#808080]
                RenderText {#text} at (0,0) size 515x19
                  text run at (0,0) width 369: "This element is unstyled save for a background color of gray. "
                  text run at (369,0) width 146: "However, it contains an "
                RenderInline {SPAN} at (0,0) size 157x19 [bgcolor=#00FFFF]
                  RenderText {#text} at (505,0) size 133x19
                    text run at (505,0) width 133: "inline element of class "
                  RenderInline {TT} at (0,0) size 24x16
                    RenderText {#text} at (638,3) size 24x16
                      text run at (638,3) width 24: "two"
                RenderText {#text} at (662,0) size 748x39
                  text run at (662,0) width 86: ", which should"
                  text run at (0,20) width 222: "result in -10px left margin only in the "
                RenderInline {STRONG} at (0,0) size 27x19
                  RenderText {#text} at (222,20) size 27x19
                    text run at (222,20) width 27: "first"
                RenderText {#text} at (249,20) size 216x19
                  text run at (249,20) width 216: " line in which the inline box appears."
layer at (8,89) size 784x2 clip at (0,0) size 0x0
  RenderBlock {HR} at (0,81) size 784x2 [border: (1px inset #000000)]
