layer at (0,0) size 800x600
  RenderView at (0,0) size 800x600
layer at (0,0) size 800x600
  RenderBlock {HTML} at (0,0) size 800x600
    RenderBody {BODY} at (8,8) size 784x584
      RenderBlock {P} at (0,18) size 784x20
        RenderText {#text} at (0,0) size 51x19
          text run at (0,0) width 51: "Test for "
        RenderInline {I} at (0,0) size 560x19
          RenderInline {A} at (0,0) size 303x19 [color=#0000EE]
            RenderText {#text} at (51,0) size 303x19
              text run at (51,0) width 303: "https://bugs.webkit.org/show_bug.cgi?id=9221"
          RenderText {#text} at (354,0) size 257x19
            text run at (354,0) width 4: " "
            text run at (358,0) width 253: "resize property doesn't work on iframes"
        RenderText {#text} at (611,0) size 4x19
          text run at (611,0) width 4: "."
      RenderBlock (anonymous) at (0,64) size 784x230
        RenderText {#text} at (0,0) size 0x0
layer at (8,8) size 784x2 clip at (0,0) size 0x0
  RenderBlock {HR} at (0,0) size 784x2 [border: (1px inset #000000)]
layer at (8,62) size 784x2 clip at (0,0) size 0x0
  RenderBlock {HR} at (0,54) size 784x2 [border: (1px inset #000000)]
layer at (58,122) size 163x130
  RenderIFrame {IFRAME} at (50,50) size 163x130 [border: (2px solid #0000FF)]
    layer at (0,0) size 159x126
      RenderView at (0,0) size 159x126
    layer at (0,0) size 159x126
      RenderBlock {HTML} at (0,0) size 159x126
        RenderBody {BODY} at (8,8) size 143x110
